Project 1 Explanatory Data Analysis
…
finallydone<-joindatomit%>%mutate(cluster=as.factor(pam2$clustering))

conmat<-finallydone%>%group_by(period, speed, pair, ticket)%>%count(cluster)%>%arrange(desc(n))%>%
pivot_wider(names_from="cluster",values_from="n",values_fill = list('n'=0))

conmat

## # A tibble: 60 x 7
## # Groups:   period, speed, pair, ticket [120]
##    period speed  pair ticket   `1`   `2`   `3`
##     <int> <int> <int> <fct>  <int> <int> <int>
##  1      2    24     7 yes       40     0     0
##  2      1    24     7 yes       24     0     0
##  3      1    24    10 yes        0    12     0
##  4      3    24     7 yes        0     0    12
##  5      1    24     2 yes        8     0     0
##  6      1    24     3 yes        8     0     0
##  7      1    24     4 yes        8     0     0
##  8      3    24     3 yes        0     0     8
##  9      3    24    10 no         0     0     8
## 10      3    24    11 no         0     0     8
## # … with 50 more rows
…
